STAT 6302 Final Project
…
# A tibble: 3 × 4
  .metric .estimator .estimate .config             
  <chr>   <chr>          <dbl> <chr>               
1 rmse    standard       0.246 Preprocessor1_Model1
2 mae     standard       0.165 Preprocessor1_Model1
3 rsq     standard       0.941 Preprocessor1_Model1

Code

glmnet_fit <- glmnet_wflow2 %>%
  fit(diamonds_train)
glmnet_coef <- tidy(glmnet_fit)
glmnet_coef[-3]

# A tibble: 28 × 2
   term          estimate
   <chr>            <dbl>
 1 (Intercept)     7.41  
 2 depth           0.0105
 3 table           0.0156
 4 volume_ns_1     1.03  
 5 volume_ns_3    -0.746 
 6 cut_Good        0.0256
 7 cut_Ideal       0.106 
 8 cut_Premium     0.0602
 9 cut_Very.Good   0.0518
10 color_E        -0.0571
# ℹ 18 more rows
…
